<?xml version="1.0" encoding="UTF-8" standalone="no"?>
<!-- Created with Inkscape (http://www.inkscape.org/) -->

<svg
        xmlns:dc="http://purl.org/dc/elements/1.1/"
        xmlns:cc="http://creativecommons.org/ns#"
        xmlns:rdf="http://www.w3.org/1999/02/22-rdf-syntax-ns#"
        xmlns="http://www.w3.org/2000/svg"
        xmlns:sodipodi="http://sodipodi.sourceforge.net/DTD/sodipodi-0.dtd"
        xmlns:inkscape="http://www.inkscape.org/namespaces/inkscape"
        version="1.1"
        width="461"
        height="461"
        id="svg20312"
        sodipodi:docname="MIA.svg"
        inkscape:version="0.92.4 (5da689c313, 2019-01-14)"
        inkscape:export-filename="C:\Users\pnorton\Downloads\Miami_Marlins_Logo.png"
        inkscape:export-xdpi="209.86285"
        inkscape:export-ydpi="209.86285">
  <sodipodi:namedview
     pagecolor="#ffffff"
     bordercolor="#666666"
     borderopacity="1"
     objecttolerance="10"
     gridtolerance="10"
     guidetolerance="10"
     inkscape:pageopacity="0"
     inkscape:pageshadow="2"
     inkscape:window-width="1920"
     inkscape:window-height="1017"
     id="namedview3813"
     showgrid="false"
     inkscape:zoom="1"
     inkscape:cx="31.649296"
     inkscape:cy="182.98121"
     inkscape:window-x="-8"
     inkscape:window-y="-8"
     inkscape:window-maximized="1"
     inkscape:current-layer="svg20312"
     fit-margin-top="0"
     fit-margin-left="0"
     fit-margin-right="0"
     fit-margin-bottom="0" />
  <defs
     id="defs20314" />
  <metadata
     id="metadata20317">
    <rdf:RDF>
      <cc:Work
         rdf:about="">
        <dc:format>image/svg+xml</dc:format>
        <dc:type
           rdf:resource="http://purl.org/dc/dcmitype/StillImage" />
        <dc:title></dc:title>
      </cc:Work>
    </rdf:RDF>
  </metadata>
  <g
     transform="matrix(23.048399,0,0,-23.048399,78.520685,259.53394)"
     id="g19218">
    <path
       d="m 0,0 c -0.138,0.169 -0.238,0.328 -0.307,0.452 -0.089,0.157 -0.127,0.261 -0.127,0.261 -0.031,0.104 -0.058,0.224 -0.078,0.362 -0.16,1.169 0.931,2.436 2.369,3.571 z M 9.9510001,-2.612 12.174,-8.309 h 4.353 L 10.475,6.822 6.605,-0.285 3.366,5.72 C 4.887,6.71 6.451,7.499 7.225,7.871 L 6.919,8.015 C 5.956,7.533 5.131,7.091 4.415,6.678 3.984,6.43 3.594,6.192 3.235,5.961 L 2.746,6.871 2.476,6.194 2.055,5.143 C 1.572,4.779 1.162,4.428 0.796,4.078 -0.866,2.484 -1.017,1.299 -0.573,0.466 -0.506,0.352 -0.426,0.242 -0.337,0.139 -0.009,-0.246 0.446,-0.56 0.87899996,-0.767 l 0.031,-0.014 0.07,-0.032 L 1.105,-0.866 1.143,-0.883 H 1.147 L 1.003,-0.814 V -0.815 L 0.908,-0.763 C 0.828,-0.72 0.75,-0.671 0.675,-0.62 L 0.637,-0.595 C 0.517,-0.512 0.425,-0.43 0.368,-0.379 L 0.313,-0.328 2.43,5.079 2.614,5.546 2.745,5.882 2.746,5.881 2.842,5.703 2.974,5.46 6.61,-1.269 10.475,5.881 15.846,-7.84 H 12.501 L 10.024,-1.501 6.61,-7.818 3.196,-1.501 3.194,-1.507 3.165,-1.584 v 0.001 L 0.717,-7.84 h -3.345 l 2.745,7.014 0.027,-0.005 c -0.131,0.023 -0.254,0.049 -0.361,0.075 h -0.002 l 0.002,-0.002 -0.081,0.012 H -0.299 L -3.32,-8.309 h 4.35 l 2.229,5.697 3.344,-6.129"
       id="path19220"
       style="fill:#11bfe4;fill-opacity:1;fill-rule:nonzero;stroke:none"
       inkscape:connector-curvature="0" />
  </g>
  <g
     transform="matrix(23.048399,0,0,-23.048399,217.47947,60.464841)"
     id="g19222">
    <path
       d="M 0,0 C 3.169,1.502 5.321,2.612 5.321,2.612 L 4.53,2.31 C 4.451,2.274 2.778,1.511 2.485,1.381 0.75,0.62 -1.576,-0.41 -2.542,-0.903 c -0.193,-0.098 -0.506,-0.269 -0.852,-0.471 -3.296,-2.07 -5.712,-4.39 -4.485,-7.055 -1.406,1.633 -0.173,4.03 1.315,5.687 0.993,1.108 1.463,1.566 1.97,2.39 0.397,0.644 0.652,1.321 0.63,2.002 L -4.495,1.918 C -4.427,1.7 -4.571,0.372 -5.428,-0.798 c -0.937,-1.278 -4.168,-4.103 -3.188,-6.763 0.543,-1.473 1.938,-1.767 2.289,-1.822 l 0.079,-0.01 C -9.29,-7.826 -8.494,-3.94 0,0"
       id="path19224"
       style="fill:#82427e;fill-opacity:1;fill-rule:nonzero;stroke:none"
       inkscape:connector-curvature="0" />
  </g>
  <g
     transform="matrix(23.048399,0,0,-23.048399,180.25631,105.61668)"
     id="g19226">
    <path
       d="M 0,0 C 0.717,0.413 1.543,0.855 2.505,1.337 L 2.041,1.555 1.822,1.658 C 0.921,1.207 -0.348,0.514 -1.466,-0.183 l 0.288,-0.534 C -0.821,-0.486 -0.43,-0.248 0,0"
       id="path19228"
       style="fill:#0281c7;fill-opacity:1;fill-rule:nonzero;stroke:none"
       inkscape:connector-curvature="0" />
  </g>
  <g
     transform="matrix(23.048399,0,0,-23.048399,103.96611,279.49385)"
     id="g19230">
    <path
       d="m 0,0 -0.124,0.054 -0.07,0.031 -0.032,0.014 C -0.658,0.305 -1.114,0.62 -1.441,1.005 -1.53,1.109 -1.61,1.218 -1.677,1.332 -2.121,2.165 -1.97,3.35 -0.308,4.944 0.057,5.293 0.468,5.645 0.951,6.009 L 1.372,7.06 C 1.222,6.962 1.076,6.865 0.937,6.77 -3.289,3.862 -2.967,1.903 -1.77,0.899 -1.561,0.72 -1.321,0.554 -1.08,0.437 -0.747,0.276 -0.431,0.127 -0.094,0.022 L 0.02,-0.013 0.04,-0.018 H 0.041 L 0,0"
       id="path19232"
       style="fill:#0281c7;fill-opacity:1;fill-rule:nonzero;stroke:none"
       inkscape:connector-curvature="0" />
  </g>
  <g
     transform="matrix(23.048399,0,0,-23.048399,66.189785,123.66363)"
     id="g19234">
    <path
       d="m 0,0 c -1.488,-1.657 -2.721,-4.054 -1.315,-5.686 -1.227,2.664 1.19,4.984 4.485,7.054 0.346,0.202 0.659,0.373 0.851,0.471 0.967,0.493 3.293,1.523 5.028,2.285 0.294,0.128 1.966,0.892 2.044,0.928 l 0.004,0.001 c 0,0 -3.527,-1.34 -4.229,-1.614 L 6.865,3.438 C 6.531,3.356 6.06,3.272 5.724,3.285 5.457,3.293 5.003,3.349 4.488,3.565 4.335,3.631 3.435,4.002 2.676,4.356 L 2.6,4.392 C 2.622,3.711 2.367,3.034 1.97,2.39 1.463,1.567 0.993,1.108 0,0"
       id="path19236"
       style="fill:#11bfe4;fill-opacity:1;fill-rule:nonzero;stroke:none"
       inkscape:connector-curvature="0" />
  </g>
  <g
     transform="matrix(23.048399,0,0,-23.048399,99.44863,277.14291)"
     id="g19238">
    <path
       d="M 0,0 0.095,-0.05 0.018,-0.009 0,0"
       id="path19240"
       style="fill:#ffffff;fill-opacity:1;fill-rule:nonzero;stroke:none"
       inkscape:connector-curvature="0" />
  </g>
  <g
     transform="matrix(23.048399,0,0,-23.048399,142.57218,136.77817)"
     id="g19242">
    <path
       d="m 0,0 0.081,-1.331 0.014,-0.222 v 10e-4 l 3.602,-6.609 0.14,-0.263 0.143,0.263 3.578,6.596 V -1.567 L 7.695,0.555 3.831,-6.596 0.195,0.134 0.063,0.377 -0.033,0.555 -0.019,0.321"
       id="path19244"
       style="fill:#c15db4;fill-opacity:1;fill-rule:nonzero;stroke:none"
       inkscape:connector-curvature="0" />
  </g>
  <g
     transform="matrix(23.048399,0,0,-23.048399,48.580811,418.36045)"
     id="g19246">
    <path
       d="M 0,0 H 1.332"
       id="path19248"
       style="fill:#4c494d;fill-opacity:1;fill-rule:nonzero;stroke:none"
       inkscape:connector-curvature="0" />
  </g>
  <g
     transform="matrix(23.048399,0,0,-23.048399,234.3048,384.04139)"
     id="g19250">
    <path
       d="m 0,0 -0.149,-0.276 -0.148,0.275 0.148,-0.276"
       id="path19252"
       style="fill:#4c494d;fill-opacity:1;fill-rule:nonzero;stroke:none"
       inkscape:connector-curvature="0" />
  </g>
  <g
     transform="matrix(23.048399,0,0,-23.048399,415.21168,423.68463)"
     id="g19254">
    <path
       d="m 0,0 0.007,-0.018 h -1.64 l -2.85,7.29 -3.515,-6.503 -3.515,6.503 -2.854,-7.296 -1.639,0.001 v -0.001 l -1.23,-0.694 h 3.345 l 2.447,6.257 0.029,0.076 0.003,0.006 3.415,-6.317 3.413,6.317 2.476,-6.339 h 3.346 l -1.231,0.7"
       id="path19256"
       style="fill:#ffffff;fill-opacity:1;fill-rule:nonzero;stroke:none"
       inkscape:connector-curvature="0" />
  </g>
  <g
     transform="matrix(23.048399,0,0,-23.048399,360.21821,283.68866)"
     id="g19258">
    <path
       d="M 0,0 2.228,-5.685 2.282,-5.823 2.386,-6.074"
       id="path19260"
       style="fill:#4c494d;fill-opacity:1;fill-rule:nonzero;stroke:none"
       inkscape:connector-curvature="0" />
  </g>
  <g
     transform="matrix(23.048399,0,0,-23.048399,149.85547,256.07668)"
     id="g19262">
    <path
       d="M 0,0 3.515,-6.503 7.03,0 9.88,-7.29 h 1.64 l -0.007,0.018 -0.104,0.251 V -7.022 H 10.094 L 7.068,0.742 3.664,-5.553 3.515,-5.829 3.366,-5.553 -0.028,0.724 -3.062,-7.041 H -4.394 L -4.459,-7.21 -4.493,-7.296 h 1.639"
       id="path19264"
       style="fill:#4c494d;fill-opacity:1;fill-rule:nonzero;stroke:none"
       inkscape:connector-curvature="0" />
  </g>
  <g
     transform="matrix(23.048399,0,0,-23.048399,144.4391,167.43254)"
     id="g19266">
    <path
       d="M 0,0 -0.081,1.33 -0.101,1.651 -0.115,1.886 -0.246,1.55 -0.43,1.083 -2.547,-4.323 -2.492,-4.375 c 0.056,-0.052 0.149,-0.132 0.27,-0.216 l 0.037,-0.026 c 0.084,-0.055 0.163,-0.105 0.251,-0.152 l 0.076,-0.041 1.872,4.587"
       id="path19268"
       style="fill:#fe7aed;fill-opacity:1;fill-rule:nonzero;stroke:none"
       inkscape:connector-curvature="0" />
  </g>
  <g
     transform="matrix(23.048399,0,0,-23.048399,17.949489,440.23338)"
     id="g19270">
    <path
       d="M 0,0 1.23,0.694 1.263,0.78 1.329,0.949 1.331,0.952 3.596,6.942 H 3.597 L 3.536,6.94 H 3.487 C 3.238,6.941 2.993,6.974 2.772,7.009 L 2.745,7.013"
       id="path19272"
       style="fill:#fe7aed;fill-opacity:1;fill-rule:nonzero;stroke:none"
       inkscape:connector-curvature="0" />
  </g>
  <g
     transform="matrix(23.048399,0,0,-23.048399,360.21821,283.68866)"
     id="g19274">
    <path
       d="m 0,0 2.386,-6.074 0.006,-0.018 1.231,-0.7 -5.37,13.721 -0.138,-2.121"
       id="path19276"
       style="fill:#fe7aed;fill-opacity:1;fill-rule:nonzero;stroke:none"
       inkscape:connector-curvature="0" />
  </g>
  <g
     transform="matrix(23.048399,0,0,-23.048399,48.580811,418.36045)"
     id="g19278"
     style="fill:#4c494d;fill-opacity:1">
    <path
       d="M 0,-0.1 1.432,0 4.4,7.566 7.75,1.25 7.909,1.213 8.158,1.489 11.462,7.7 14.488,-0.1 h 1.315 v 0.12 l -0.054,0.137 -2.228,5.686 -1.885,4.807 v 0.002 L 8.058,4.056 7.915,3.793 7.775,4.056 4.173,10.665 V 10.664 L 2.301,6.077 H 2.302 L 2.446,6.007 2.442,6.008 2.403,6.024 2.444,6.007 2.443,6.006 2.268,5.994 2.267,5.993 0.002,0.003"
       id="path19280"
       style="fill:#4c494d;fill-opacity:1;fill-rule:nonzero;stroke:none"
       inkscape:connector-curvature="0" />
  </g>
</svg>
